"Membership Number","Business Name","country","memshp (Q3)","Primary Contact","Email",
10032191,"KWON WOO","Korea, Republic of","Associate","? ??","wongyoun@nate.com","All APAC"
301071018,"(?)?????????","Korea, Republic of","Associate","? ?? ??","hang1273@hanmail.net","All APAC"
301070521,"(?)??????","Korea, Republic of","Associate","Moon Yong Kook","mpaq2@korea.com","All APAC"
9004218,"SINAR INDO PRIMA / JEES COMPUTER","Indonesia","Associate","Sulianto Juwandi","tamiang@centrin.net.id","All APAC"
10046514,"TETA KOMPUTER","Indonesia","Associate","Jonsen Lim","abb4_23@yahoo.com","All APAC"
10403901,"Miracle Machines Pte Ltd","Singapore","Associate","Dorcas Faith Derek","derek@miracle-machines.co","All APAC"
10093758,"Gemtronics Australia","Australia","Associate","Kao Charles","charles@gemtronics.net.au","All APAC"
10294818,"MEGACOM Alfa Pratama","Indonesia","Associate","Tjeng Edy Karianto","etjeng@yahoo.com","All APAC"
10396185,"TJAHAYA KOMPUTER","Indonesia","Associate","tjahaya romi","romi@cyber-isp.net","All APAC"
9008978,"(?)????","Korea, Republic of","Associate","? ?? ??","oskwon223@yahoo.co.kr","All APAC"
10038071,"?????","Korea, Republic of","Associate","? ??","bhsong@ethertec.co.kr","All APAC"
10037515,"Kai Seng Australian Holdings Pty Ltd","Australia","Associate","Huang Lee","toney@kscomputer.com.au","All APAC"
10276298,"dopcom","Korea, Republic of","Associate","? ??","furil@naver.com","All APAC"
9004039,"JAYACOM ALPHA ELECTRONIC","Indonesia","Associate","KOESNADI HENDRA","ladyni@cbn.net.id","All APAC"
10269407,"Experience Computer","Indonesia","Associate","Santoso Herman","bui_80@yahoo.com","All APAC"
10118529,"Auscomp Computers Pty Ltd","Australia","Associate","Mahendra Prabal","auscomp@auscompcomputers.com","All APAC"
10084558,"TERVAN PTY LTD","Australia","Associate","qu Kevin","kevin@tervan.com.au","All APAC"
10351720,"DATA TECH COMPUTER","Indonesia","Associate","Gunarso Sutjipto","datatech@telkom.net","All APAC"
